<svg xmlns="http://www.w3.org/2000/svg" width="24" height="19" viewBox="0 0 24 19">
  <g id="burger" transform="translate(-6.429 -10)">
    <rect id="Rectangle_1" data-name="Rectangle 1" width="18" height="3" transform="translate(12.429 18)" fill="#f0f0f0"/>
    <rect id="Rectangle_2" data-name="Rectangle 2" width="24" height="3" transform="translate(6.429 10)" fill="#f0f0f0"/>
    <rect id="Rectangle_3" data-name="Rectangle 3" width="9" height="3" transform="translate(21.429 26)" fill="#f0f0f0"/>
  </g>
</svg>
